Efficiency graph example • PFUAggDatabase
…
agg_eta_pfu_data <- pins::pin_read(board = pinboard,
                                   name = "agg_eta_pfu",
                                   version = "20230619T051304Z-f653c")

agg_eta_pfu_data is an R data frame as
shown below:

agg_eta_pfu_data
#> # A tibble: 473,140 × 16
#>    Country Method Energy.type  Year IEAMW Chopped.mat Chopped.var
#>    <chr>   <chr>  <chr>       <dbl> <chr> <chr>       <chr>      
#>  1 AGO     PCM    E            1971 IEA   None        None       
#>  2 AGO     PCM    E            1971 IEA   None        None       
#>  3 AGO     PCM    X            1971 IEA   None        None       
#>  4 AGO     PCM    X            1971 IEA   None        None       
#>  5 AGO     PCM    E            1971 MW    None        None       
#>  6 AGO     PCM    E            1971 MW    None        None       
#>  7 AGO     PCM    X            1971 MW    None        None       
#>  8 AGO     PCM    X            1971 MW    None        None       
#>  9 AGO     PCM    E            1971 Both  None        None       
#> 10 AGO     PCM    E            1971 Both  None        None       
#> # ℹ 473,130 more rows
#> # ℹ 9 more variables: Product.aggregation <chr>, Industry.aggregation <chr>,
#> #   GrossNet <chr>, EX.p <dbl>, EX.f <dbl>, EX.u <dbl>, eta_pf <dbl>,
#> #   eta_fu <dbl>, eta_pu <dbl>
…
  # where gross energy production is provided, and
  # where aggregations were calculated from fully specified data.
  dplyr::filter(IEAMW == "Both",
                GrossNet == "Gross", 
                Product.aggregation == "Specified",
                Industry.aggregation == "Specified") |> 
  # Select only the columns of interest to us
  dplyr::select(Country, Energy.type, Year, eta_pf, eta_fu, eta_pu) |> 
  # Pivot the data to create a value column
  tidyr::pivot_longer(cols = c(eta_pf, eta_fu, eta_pu),
                      names_to = "Var.name",
                      values_to = "Value")
# Here is the prepared data
agg_eta_pfu_prepared
#> # A tibble: 48,018 × 5
#>    Country Energy.type  Year Var.name  Value
#>    <chr>   <chr>       <dbl> <chr>     <dbl>
#>  1 AGO     E            1971 eta_pf   0.713 
#>  2 AGO     E            1971 eta_fu   0.238 
#>  3 AGO     E            1971 eta_pu   0.170 
#>  4 AGO     X            1971 eta_pf   0.715 
#>  5 AGO     X            1971 eta_fu   0.0756
#>  6 AGO     X            1971 eta_pu   0.0541
#>  7 AGO     E            1972 eta_pf   0.729 
#>  8 AGO     E            1972 eta_fu   0.240 
#>  9 AGO     E            1972 eta_pu   0.175 
#> 10 AGO     X            1972 eta_pf   0.731 
#> # ℹ 48,008 more rows
…
  # Adjust the column names
  dplyr::rename(
    Country = Many,
    Continent = Few
  ) |>
  dplyr::mutate(
    # Fix "Asia_" --> "Asia"
    # to match the efficiency data frame.
    Continent = dplyr::case_when(
      Continent == "Asia_" ~ "Asia",
      TRUE ~ Continent
    )
  )
continents_agg_map
#> # A tibble: 158 × 2
#>    Country Continent
#>    <chr>   <chr>    
#>  1 AGO     Africa   
#>  2 ALB     Europe   
#>  3 ARE     MidEast  
#>  4 ARG     SoCeAmr  
#>  5 ARM     Asia     
#>  6 AUS     Oceania  
#>  7 AUT     Europe   
#>  8 AZE     Asia     
#>  9 BEL     Europe   
#> 10 BEN     Africa   
#> # ℹ 148 more rows
# Join to the efficiency data
agg_eta_pfu_with_continents <- agg_eta_pfu_nice |>
  dplyr::left_join(continents_agg_map, by = "Country")
# Notice the Continent column
agg_eta_pfu_with_continents
#> # A tibble: 48,018 × 6
#>    Country Energy.type  Year Var.name  Value Continent
#>    <chr>   <chr>       <dbl> <fct>     <dbl> <chr>    
#>  1 AGO     Energy       1971 eta[pf]  0.713  Africa   
#>  2 AGO     Energy       1971 eta[fu]  0.238  Africa   
#>  3 AGO     Energy       1971 eta[pu]  0.170  Africa   
#>  4 AGO     Exergy       1971 eta[pf]  0.715  Africa   
#>  5 AGO     Exergy       1971 eta[fu]  0.0756 Africa   
#>  6 AGO     Exergy       1971 eta[pu]  0.0541 Africa   
#>  7 AGO     Energy       1972 eta[pf]  0.729  Africa   
#>  8 AGO     Energy       1972 eta[fu]  0.240  Africa   
#>  9 AGO     Energy       1972 eta[pu]  0.175  Africa   
#> 10 AGO     Exergy       1972 eta[pf]  0.731  Africa   
#> # ℹ 48,008 more rows
…
